{
  "title": "Chat Demo EN",
  "author": "Raphaël",
  "action": [
    {
      "char": "Denis",
      "text": "Hi gab!"
    },
    {
      "char": "Gab",
      "text": "Hi Denis, what’s up?",
      "delay": 2
    },
    {
      "char": "Denis",
      "text": "Well here is a picture",
      "delay": 3
    },
    {
      "char": "Denis",
      "text": "<img src='assets/fax.jpg'/>",
      "delay": 0
    },
    {
      "char": "Denis",
      "text": "This is a message with no typeDelay and no delay before typing",
      "delay": 0,
      "typedelay": 0
    },
    {
      "char": "Gab",
      "text": "Wooooow… ",
      "delay": 6,
      "func": "lineClass",
      "funcParams":["roll"]
    },
    {
      "char": "Gab",
      "text": "My previous message had a fuction that called a 'roll' CSS animation."
    },
    {
      "char": "Denis",
      "text": "By default typedelay is set automatically, depending on the length of the message."
    },
    {
      "char": "system",
      "text": "I know! (I am a special character called 'system')",
      "typedelay": 0
    },
    {
      "char": "Denis",
      "text": "But that is just the begining, there is <a href='https://gitlab.com/raphaelbastide/piece'>more to come</a>!"
    },
    {
      "char": "system",
      "text": "End of the piece"
    }
  ]
}
