{
  "title": "[frame] Do Ghost Notes Breathe",
  "author": "Raphaël Bastide",
  "loop": true,
  "prod": true,
  "speed": 5,
  "action": [
    {
      "char": "G",
      "text": "●",
      "typedelay": 1
    },
    {
      "char": "D",
      "text": "○",
      "typedelay": 1
    },
    {
      "char": "G",
      "text": "●●",
      "typedelay": 1
    },
    {
      "char": "D",
      "text": "○○",
      "typedelay": 1
    },
    {
      "char": "G",
      "text": "●●●",
      "typedelay": 1
    },
    {
      "char": "D",
      "text": "○○○",
      "typedelay": 1
    },
    {
      "char": "G",
      "text": "●●●●",
      "typedelay": 1
    },
    {
      "char": "D",
      "text": "○○○○",
      "typedelay": 1
    }
  ]
}
