{
  "title": "Do Ghost Notes Breathe",
  "author": "Raphaël Bastide",
  "loop": true,
  "prod": true,
  "speed": 10,
  "action": [
    {
      "char": "G",
      "text": "●○●○●○●○"
    },
    {
      "char": "D",
      "text": "●○●○",
      "delay": 3,
      "typedelay": 3
    },
    {
      "char": "D",
      "text": "●○●○",
      "typedelay": 2
    },
    {
      "char": "G",
      "text": "●●○●●○●○●○●●○"
    },
    {
      "char": "D",
      "text": "●○○●",
      "delay": 3,
      "typedelay": 2
    },
    {
      "char": "G",
      "text": "○○○○●○○○●○○●○●●",
      "delay": 2,
      "typedelay": 2
    },
    {
      "char": "D",
      "text": "●○○○●○○○○○●●",
      "delay": 4,
      "typedelay": 3
    },
    {
      "char": "G",
      "text": "●○○●○○●○●○○●○○●○",
      "delay": 2,
      "typedelay": 2
    },
    {
      "char": "G",
      "text": "●○○●○○●○●○○●○○●○●●●●○○●●●●●●○○○○",
      "delay": 4,
      "typedelay": 4
    },
    {
      "char": "D",
      "text": "●●○●●○●○●●○●●○●○",
      "delay": 4,
      "typedelay": 3
    },
    {
      "char": "D",
      "text": "<iframe src='https://raphaelbastide.com/piece/?p=ghostnotesframe.json'>",
      "delay": 2,
      "typedelay": 2
    },
    {
      "char": "D",
      "text": "●○●○●○○●○●○●○○",
      "delay": 4,
      "typedelay": 3
    },
    {
      "char": "G",
      "text": "●○○●",
      "func": "split",
      "funcParams":[2, true],
      "delay": 2,
      "typedelay": 2
    },
    {
      "char": "D",
      "text": "●○●○●",
      "delay": 2,
      "frame":"1"
    },
    {
      "char": "G",
      "text": "●○●●○●○○●",
      "frame":"1",
      "typedelay":1
    },
    {
      "char": "G",
      "text": "○○○●●○●●●",
      "frame":"1",
      "typedelay":2
    },
    {
      "char": "D",
      "text": "●●○●●○●○●●○●●○●○",
      "frame":"1"
    },
    {
      "char": "D",
      "text": "○●○●○",
      "delay": 4,
      "frame":"2"
    },
    {
      "char": "D",
      "text": "○○●○○○●○○●○○○●",
      "frame":"2"
    },
    {
      "char": "G",
      "text": "○○●●○○●○○●○○○●",
      "frame":"2",
      "typedelay":2
    },
    {
      "char": "G",
      "text": "○○○",
      "frame":"2",
      "func": "split",
      "funcParams":[2, true]
    },
    {
      "char": "G",
      "text": "●○●●○●○○●○●●○●○○●○●●○●○○●○●●○●○○",
      "delay": 7,
      "typedelay": 2
    }
  ]
}
